Segundo Examen Parcial Modelaje de Enfermedades Infecciosas
…
library(palmerpenguins)
library(dplyr)

Filtra los pingüinos que pertenecen a la especie “Adelie” y tienen
un peso corporal mayor a 3500 gramos.

adeli <- penguins %>%
  filter(species == "Adelie", body_mass_g > 3500)

# Muestra los resultados
adeli

## # A tibble: 92 × 8
##    species island    bill_length_mm bill_depth_mm flipper_length_mm body_mass_g
##    <fct>   <fct>              <dbl>         <dbl>             <int>       <int>
##  1 Adelie  Torgersen           39.1          18.7               181        3750
##  2 Adelie  Torgersen           39.5          17.4               186        3800
##  3 Adelie  Torgersen           39.3          20.6               190        3650
##  4 Adelie  Torgersen           38.9          17.8               181        3625
##  5 Adelie  Torgersen           39.2          19.6               195        4675
##  6 Adelie  Torgersen           42            20.2               190        4250
##  7 Adelie  Torgersen           37.8          17.3               180        3700
##  8 Adelie  Torgersen           38.6          21.2               191        3800
##  9 Adelie  Torgersen           34.6          21.1               198        4400
## 10 Adelie  Torgersen           36.6          17.8               185        3700
## # ℹ 82 more rows
## # ℹ 2 more variables: sex <fct>, year <int>
…
pen_bmi <- penguins %>%
  mutate(
    body_mass_kg = body_mass_g / 1000,    # Convertir el peso a kilogramos
    height_m = flipper_length_mm / 1000,  # Convertir la longitud de aleta a metros
    bmi = body_mass_kg / (height_m ^ 2)   # Calcular el índice de masa corporal (BMI)
  )

# Mostrar los primeros resultados
pen_bmi

## # A tibble: 344 × 11
##    species island    bill_length_mm bill_depth_mm flipper_length_mm body_mass_g
##    <fct>   <fct>              <dbl>         <dbl>             <int>       <int>
##  1 Adelie  Torgersen           39.1          18.7               181        3750
##  2 Adelie  Torgersen           39.5          17.4               186        3800
##  3 Adelie  Torgersen           40.3          18                 195        3250
##  4 Adelie  Torgersen           NA            NA                  NA          NA
##  5 Adelie  Torgersen           36.7          19.3               193        3450
##  6 Adelie  Torgersen           39.3          20.6               190        3650
##  7 Adelie  Torgersen           38.9          17.8               181        3625
##  8 Adelie  Torgersen           39.2          19.6               195        4675
##  9 Adelie  Torgersen           34.1          18.1               193        3475
## 10 Adelie  Torgersen           42            20.2               190        4250
## # ℹ 334 more rows
## # ℹ 5 more variables: sex <fct>, year <int>, body_mass_kg <dbl>,
## #   height_m <dbl>, bmi <dbl>
…
